division_4bit_tb.vcd
$date
	Wed May 07 02:35:06 2025
$end
$version
	Icarus Verilog
$end
$timescale
	1ps
$end
$scope module division_4bit_tb $end
$var wire 5 ! remainder [4:0] $end
$var wire 4 " quotient [3:0] $end
$var wire 1 # done $end
$var reg 1 $ clk $end
$var reg 4 % dividend [3:0] $end
$var reg 4 & divisor [3:0] $end
$var reg 1 ' rst $end
$var reg 1 ( start $end
$scope module uut $end
$var wire 1 $ clk $end
$var wire 4 ) dividend [3:0] $end
$var wire 4 * divisor [3:0] $end
$var wire 1 ' rst $end
$var wire 1 ( start $end
$var wire 1 + status $end
$var wire 1 , shift_left_enable_q $end
$var wire 1 - shift_left_enable_a $end
$var wire 1 . select_mux_2 $end
$var wire 1 / select_add $end
$var wire 1 0 select_Q $end
$var wire 1 1 select_A $end
$var wire 5 2 remainder [4:0] $end
$var wire 4 3 quotient [3:0] $end
$var wire 1 4 negative_flag $end
$var wire 1 5 ld_rem_quotient $end
$var wire 1 6 ld_Q $end
$var wire 1 7 ld_A $end
$var wire 1 # done $end
$var wire 1 8 count_enable $end
$var wire 2 9 count [1:0] $end
$scope module controlpath $end
$var wire 1 $ clk $end
$var wire 1 ' rst $end
$var wire 1 ( start $end
$var wire 1 + status $end
$var wire 1 4 negative_flag $end
$var wire 2 : count [1:0] $end
$var parameter 4 ; adder $end
$var parameter 4 < check $end
$var parameter 4 = display $end
$var parameter 4 > idle $end
$var parameter 4 ? iter $end
$var parameter 4 @ load $end
$var parameter 4 A shift_a $end
$var parameter 4 B shift_q $end
$var parameter 4 C subtract $end
$var parameter 4 D wait_a $end
$var parameter 4 E wait_extra_debug $end
$var parameter 4 F wait_load $end
$var parameter 4 G wait_q $end
$var reg 1 8 count_enable $end
$var reg 1 # done $end
$var reg 1 7 ld_A $end
$var reg 1 6 ld_Q $end
$var reg 1 5 ld_rem_quotient $end
$var reg 4 H next_state [3:0] $end
$var reg 4 I present_state [3:0] $end
$var reg 1 1 select_A $end
$var reg 1 0 select_Q $end
$var reg 1 / select_add $end
$var reg 1 . select_mux_2 $end
$var reg 1 - shift_left_enable_a $end
$var reg 1 , shift_left_enable_q $end
$upscope $end
$scope module datapath $end
$var wire 1 $ clk $end
$var wire 1 8 count_enable $end
$var wire 4 J dividend [3:0] $end
$var wire 4 K divisor [3:0] $end
$var wire 1 7 ld_A $end
$var wire 1 6 ld_Q $end
$var wire 1 5 ld_rem_quotient $end
$var wire 1 ' rst $end
$var wire 1 1 select_A $end
$var wire 1 0 select_Q $end
$var wire 1 / select_add $end
$var wire 1 . select_mux_2 $end
$var wire 1 - shift_left_enable_a $end
$var wire 1 , shift_left_enable_q $end
$var wire 5 L subtractor_out [4:0] $end
$var wire 1 + status $end
$var wire 4 M shift_register_out_q [3:0] $end
$var wire 5 N shift_register_out_a [4:0] $end
$var wire 5 O remainder [4:0] $end
$var wire 4 P quotient [3:0] $end
$var wire 1 4 negative_flag $end
$var wire 5 Q mux_out_4 [4:0] $end
$var wire 4 R mux_out_3 [3:0] $end
$var wire 5 S mux_out_2 [4:0] $end
$var wire 5 T mux_out_1 [4:0] $end
$var wire 2 U count [1:0] $end
$var wire 5 V adder_out [4:0] $end
$var wire 4 W Q [3:0] $end
$var wire 5 X A [4:0] $end
$scope module A_reg $end
$var wire 1 $ clk $end
$var wire 1 7 ld_register $end
$var wire 1 ' rst $end
$var wire 5 Y input_data [4:0] $end
$var reg 5 Z output_data [4:0] $end
$upscope $end
$scope module Q_reg $end
$var wire 1 $ clk $end
$var wire 1 6 ld_register $end
$var wire 1 ' rst $end
$var wire 4 [ input_data [3:0] $end
$var reg 4 \ output_data [3:0] $end
$upscope $end
$scope module adder1 $end
$var wire 5 ] B [4:0] $end
$var wire 5 ^ A [4:0] $end
$var reg 5 _ sum [4:0] $end
$upscope $end
$scope module cmp $end
$var wire 2 ` B [1:0] $end
$var wire 2 a A [1:0] $end
$var reg 1 + equal $end
$upscope $end
$scope module cmp1 $end
$var wire 1 b A $end
$var wire 1 c B $end
$var reg 1 4 equal $end
$upscope $end
$scope module incrementer $end
$var wire 1 $ clk $end
$var wire 1 8 count_enable $end
$var wire 1 ' rst $end
$var reg 2 d count [1:0] $end
$upscope $end
$scope module mux1 $end
$var wire 5 e A [4:0] $end
$var wire 1 1 select $end
$var wire 5 f B [4:0] $end
$var reg 5 g out [4:0] $end
$upscope $end
$scope module mux2 $end
$var wire 5 h A [4:0] $end
$var wire 1 . select $end
$var wire 5 i B [4:0] $end
$var reg 5 j out [4:0] $end
$upscope $end
$scope module mux3 $end
$var wire 4 k A [3:0] $end
$var wire 1 0 select $end
$var wire 4 l B [3:0] $end
$var reg 4 m out [3:0] $end
$upscope $end
$scope module mux4 $end
$var wire 5 n A [4:0] $end
$var wire 1 / select $end
$var wire 5 o B [4:0] $end
$var reg 5 p out [4:0] $end
$upscope $end
$scope module quotient_reg $end
$var wire 1 $ clk $end
$var wire 1 5 ld_register $end
$var wire 1 ' rst $end
$var wire 4 q input_data [3:0] $end
$var reg 4 r output_data [3:0] $end
$upscope $end
$scope module remainder_reg $end
$var wire 1 $ clk $end
$var wire 5 s input_data [4:0] $end
$var wire 1 5 ld_register $end
$var wire 1 ' rst $end
$var reg 5 t output_data [4:0] $end
$upscope $end
$scope module shift_A_left $end
$var wire 5 u A [4:0] $end
$var wire 4 v Q [3:0] $end
$var wire 1 $ clk $end
$var wire 1 ' rst $end
$var wire 1 - shift_left_enable_a $end
$var reg 5 w shift_out [4:0] $end
$upscope $end
$scope module shift_Q_left $end
$var wire 1 x A $end
$var wire 4 y Q [3:0] $end
$var wire 1 $ clk $end
$var wire 1 ' rst $end
$var wire 1 , shift_left_enable_q $end
$var reg 4 z shift_out [3:0] $end
$upscope $end
$scope module subtractor1 $end
$var wire 5 { A [4:0] $end
$var wire 5 | B [4:0] $end
$var reg 5 } difference [4:0] $end
$upscope $end
$upscope $end
$upscope $end
$upscope $end
$enddefinitions $end
$comment Show the parameter values. $end
$dumpall
b110 G
b111 F
b1000 E
b11 D
b100 C
b101 B
b10 A
b1 @
b1011 ?
b0 >
b1100 =
b1010 <
b1001 ;
$end
#0
$dumpvars
b0 }
b0 |
b0 {
b0 z
b0 y
0x
b0 w
b0 v
b0 u
b0 t
b0 s
b0 r
b0 q
b0 p
b0 o
b0 n
b0 m
b0 l
b0 k
b0 j
b0 i
b0 h
b0 g
b0 f
b0 e
bx d
1c
0b
bx a
b11 `
b0 _
b0 ^
b0 ]
b0 \
b0 [
b0 Z
b0 Y
b0 X
b0 W
b0 V
bx U
b0 T
b0 S
b0 R
b0 Q
b0 P
b0 O
b0 N
b0 M
b0 L
b0 K
b0 J
b0 I
b0 H
bx :
bx 9
08
07
06
05
04
b0 3
b0 2
01
00
0/
0.
0-
0,
0+
b0 *
b0 )
0(
1'
b0 &
b0 %
0$
0#
b0 "
b0 !
$end
#5000
b0 9
b0 :
b0 U
b0 a
b0 d
1$
#10000
0$
0'
#15000
1$
#20000
0$
1'
#25000
1$
#30000
1x
b10001 T
b10001 Y
b10001 g
b10001 S
b10001 f
b10001 j
b1 H
b1111 V
b1111 _
b1111 h
b10001 L
b10001 i
b10001 }
0$
1(
b1111 ]
b1111 |
b1111 &
b1111 *
b1111 K
b1111 %
b1111 )
b1111 J
b1111 k
0'
#35000
b1111 R
b1111 [
b1111 m
b0 T
b0 Y
b0 g
16
17
10
11
b10 H
b1 I
1$
#40000
0$
#45000
b0 R
b0 [
b0 m
b10001 T
b10001 Y
b10001 g
1-
06
07
00
01
b11 H
b1111 W
b1111 \
b1111 v
b1111 y
b10 I
1$
#50000
0$
0(
#55000
b10010 T
b10010 Y
b10010 g
b10000 V
b10000 _
b10000 h
b10010 S
b10010 f
b10010 j
0-
b100 H
b1 Q
b1 ^
b1 p
b10010 L
b10010 i
b10010 }
b11 I
b1 N
b1 o
b1 w
b1 {
1$
#60000
0$
#65000
b101 H
b100 I
1$
#70000
0$
#75000
1,
b110 H
b101 I
1$
#80000
0$
#85000
b1110 R
b1110 [
b1110 m
0,
16
17
b111 H
b1110 M
b1110 l
b1110 q
b1110 z
b110 I
1$
#90000
0$
#95000
14
06
07
b1000 H
1b
b111 I
b1110 W
b1110 \
b1110 v
b1110 y
b10010 X
b10010 Z
b10010 n
b10010 s
b10010 u
1$
#100000
0$
#105000
b1001 H
b1000 I
1$
#110000
0$
#115000
0x
b1 T
b1 Y
b1 g
b1 V
b1 _
b1 h
b1 S
b1 f
b1 j
b10010 Q
b10010 ^
b10010 p
1.
1/
b1010 H
b1001 I
1$
#120000
0$
#125000
18
16
17
b1011 H
b1010 I
1$
#130000
0$
#135000
1x
b10010 T
b10010 Y
b10010 g
b10010 S
b10010 f
b10010 j
b10000 V
b10000 _
b10000 h
04
08
0.
0/
06
07
b10 H
b1 Q
b1 ^
b1 p
0b
b1011 I
b1 X
b1 Z
b1 n
b1 s
b1 u
b1 9
b1 :
b1 U
b1 a
b1 d
1$
#140000
0$
#145000
1-
b11 H
b10 I
1$
#150000
0$
#155000
b10100 T
b10100 Y
b10100 g
b10010 V
b10010 _
b10010 h
b10100 S
b10100 f
b10100 j
0-
b100 H
b11 Q
b11 ^
b11 p
b10100 L
b10100 i
b10100 }
b11 I
b11 N
b11 o
b11 w
b11 {
1$
#160000
0$
#165000
b101 H
b100 I
1$
#170000
0$
#175000
1,
b110 H
b101 I
1$
#180000
0$
#185000
b1100 R
b1100 [
b1100 m
0,
16
17
b111 H
b1100 M
b1100 l
b1100 q
b1100 z
b110 I
1$
#190000
0$
#195000
14
06
07
b1000 H
1b
b111 I
b1100 W
b1100 \
b1100 v
b1100 y
b10100 X
b10100 Z
b10100 n
b10100 s
b10100 u
1$
#200000
0$
#205000
b1001 H
b1000 I
1$
#210000
0$
#215000
0x
b11 T
b11 Y
b11 g
b11 V
b11 _
b11 h
b11 S
b11 f
b11 j
b10100 Q
b10100 ^
b10100 p
1.
1/
b1010 H
b1001 I
1$
#220000
0$
#225000
18
16
17
b1011 H
b1010 I
1$
#230000
0$
#235000
1x
b10100 T
b10100 Y
b10100 g
b10100 S
b10100 f
b10100 j
b10010 V
b10010 _
b10010 h
04
08
0.
0/
06
07
b10 H
b11 Q
b11 ^
b11 p
0b
b1011 I
b11 X
b11 Z
b11 n
b11 s
b11 u
b10 9
b10 :
b10 U
b10 a
b10 d
1$
#240000
0$
#245000
1-
b11 H
b10 I
1$
#250000
0$
#255000
b11000 T
b11000 Y
b11000 g
b10110 V
b10110 _
b10110 h
b11000 S
b11000 f
b11000 j
0-
b100 H
b111 Q
b111 ^
b111 p
b11000 L
b11000 i
b11000 }
b11 I
b111 N
b111 o
b111 w
b111 {
1$
#260000
0$
#265000
b101 H
b100 I
1$
#270000
0$
#275000
1,
b110 H
b101 I
1$
#280000
0$
#285000
b1000 R
b1000 [
b1000 m
0,
16
17
b111 H
b1000 M
b1000 l
b1000 q
b1000 z
b110 I
1$
#290000
0$
#295000
14
06
07
b1000 H
1b
b111 I
b1000 W
b1000 \
b1000 v
b1000 y
b11000 X
b11000 Z
b11000 n
b11000 s
b11000 u
1$
#300000
0$
#305000
b1001 H
b1000 I
1$
#310000
0$
#315000
0x
b111 T
b111 Y
b111 g
b111 V
b111 _
b111 h
b111 S
b111 f
b111 j
b11000 Q
b11000 ^
b11000 p
1.
1/
b1010 H
b1001 I
1$
#320000
0$
#325000
18
16
17
b1011 H
b1010 I
1$
#330000
0$
#335000
1x
b11000 T
b11000 Y
b11000 g
b11000 S
b11000 f
b11000 j
b10110 V
b10110 _
b10110 h
04
08
0.
0/
06
07
b10 H
b111 Q
b111 ^
b111 p
0b
1+
b1011 I
b111 X
b111 Z
b111 n
b111 s
b111 u
b11 9
b11 :
b11 U
b11 a
b11 d
1$
#340000
0$
#345000
1-
b11 H
b10 I
1$
#350000
0$
#355000
0x
b0 T
b0 Y
b0 g
b11110 V
b11110 _
b11110 h
b0 S
b0 f
b0 j
0-
b100 H
b1111 Q
b1111 ^
b1111 p
b0 L
b0 i
b0 }
b11 I
b1111 N
b1111 o
b1111 w
b1111 {
1$
#360000
0$
#365000
b101 H
b100 I
1$
#370000
0$
#375000
1,
b110 H
b101 I
1$
#380000
0$
#385000
b1 R
b1 [
b1 m
0,
16
17
b111 H
b1 M
b1 l
b1 q
b1 z
b110 I
1$
#390000
0$
#395000
06
07
b1000 H
b111 I
b1 W
b1 \
b1 v
b1 y
b0 X
b0 Z
b0 n
b0 s
b0 u
1$
#400000
0$
#405000
b1010 H
b1000 I
1$
#410000
0$
#415000
18
16
17
b1100 H
b1010 I
1$
#420000
0$
#425000
1#
15
08
06
07
b0 H
0+
b1100 I
b0 9
b0 :
b0 U
b0 a
b0 d
1$
#430000
0$
#435000
0#
05
b0 I
b1 "
b1 3
b1 P
b1 r
1$
